precision.hit:  7371
precision.all:  31850
recall.hit:  7371
recall.all:  72733
5: (0.23142857142857143, 0.10134326921754912, 0.15536959553695956, 6.727035097441658)

precision.hit:  7631
precision.all:  31850
recall.hit:  7631
recall.all:  72733
10: (0.23959183673469386, 0.10491798770846796, 0.1322175732217573, 6.813424757221885)

precision.hit:  7617
precision.all:  31850
recall.hit:  7617
recall.all:  72733
20: (0.23915227629513344, 0.10472550286664925, 0.11380753138075314, 6.8827714502596695)

precision.hit:  7413
precision.all:  31850
recall.hit:  7413
recall.all:  72733
40: (0.23274725274725275, 0.10192072374300523, 0.10767085076708507, 6.937251986171885)

precision.hit:  7039
precision.all:  31850
recall.hit:  7039
recall.all:  72733
80: (0.22100470957613816, 0.09677862868299121, 0.09762900976290098, 6.940616528144719)

precision.hit:  6600
precision.all:  31850
recall.hit:  6600
recall.all:  72733
160: (0.20722135007849293, 0.09074285400024748, 0.08647140864714087, 6.901367766987962)

